…
# The World Bank documents and reports

<!-- badges: start -->
<!-- badges: end -->

This repository contains two datasets: (1) `wb_documents` and (2)
`wb_downloads`, both in `rds` format. The data was scraped on October
7th. Therefore, the download counts information is as of that date.

## wb_documents

``` r
wb_documents
#> # A tibble: 95,325 x 84
#>    name   id    last_modified_d~ admreg admreg_key authors count count_key docna
#>    <chr>  <chr> <chr>            <chr>  <chr>      <list>  <chr> <chr>     <lis>
#>  1 D3346~ 3346~ 2021-10-06T00:0~ East ~ 119225,11~ <named~ East~ 517199    <nam~
#>  2 D3346~ 3346~ 2021-10-06T00:0~ Europ~ 119226,11~ <named~ Arme~ 82665,82~ <nam~
#>  3 D3346~ 3346~ 2021-10-02T00:0~ Afric~ 1927320,1~ <NULL>  Cent~ 82657     <nam~
#>  4 D3319~ 3319~ 2021-06-18T00:0~ South~ 119231,11~ <named~ Nepal 82535     <nam~
#>  5 D3346~ 3346~ 2021-10-06T00:0~ The W~ 622170,62~ <named~ World 517191    <nam~
#>  6 D3346~ 3346~ 2021-10-02T00:0~ Afric~ 1927320,1~ <NULL>  Cent~ 82657     <nam~
#>  7 D3319~ 3319~ 2021-06-21T00:0~ Afric~ 1927320,1~ <named~ Chad  82693     <nam~
#>  8 D3346~ 3346~ 2021-10-06T00:0~ The W~ 622170,62~ <named~ World 517191    <nam~
#>  9 D3346~ 3346~ 2021-10-05T00:0~ Latin~ 119228,11~ <named~ Arge~ 82668     <nam~
#> 10 D3346~ 3346~ 2021-10-04T00:0~ East ~ 119225,11~ <named~ Viet~ 82695     <nam~
#> # ... with 95,315 more rows, and 75 more variables: docty <chr>,
#> #   docty_key <chr>, owner <chr>, seccl <chr>, lang <chr>, lang_key <chr>,
#> #   entityids <list>, subtopic <chr>, subtopic_key <chr>, teratopic <chr>,
#> #   teratopic_key <chr>, repnb <chr>, docdt <chr>, datestored <chr>,
#> #   keywd <list>, volnb <chr>, majdocty <chr>, majdocty_key <chr>,
#> #   abstracts <list>, colti <chr>, repnme <list>, display_title <chr>,
#> #   disclosure_date <chr>, disclosure_type <chr>, pdfurl <chr>, ...
```
…
## wb_downloads

``` r
wb_downloads
#> # A tibble: 95,325 x 2
#>    guid               download_count
#>    <chr>                       <int>
#>  1 179981633527816046             64
#>  2 426681633524510673             17
#>  3 870291633497564723              2
#>  4 233291624285050426             59
#>  5 178841633526651703             33
#>  6 760741633497864137              4
#>  7 642041633397593711             17
#>  8 961501633497058891              2
#>  9 786301633477418850              1
#> 10 826921633442977133             28
#> # ... with 95,315 more rows
```
…
